<?xml version="1.0" encoding="UTF-8"?>
<!DOCTYPE svg PUBLIC "-//W3C//DTD SVG 1.1//EN" "http://www.w3.org/Graphics/SVG/1.1/DTD/svg11.dtd">
<svg version="1.2" width="160mm" height="80mm" viewBox="0 0 16000 8000" preserveAspectRatio="xMidYMid" fill-rule="evenodd" stroke-width="28.222" stroke-linejoin="round" xmlns="http://www.w3.org/2000/svg" xmlns:ooo="http://xml.openoffice.org/svg/export" xmlns:xlink="http://www.w3.org/1999/xlink" xmlns:presentation="http://sun.com/xmlns/staroffice/presentation" xmlns:smil="http://www.w3.org/2001/SMIL20/" xmlns:anim="urn:oasis:names:tc:opendocument:xmlns:animation:1.0" xml:space="preserve">
 <defs class="ClipPathGroup">
  <clipPath id="presentation_clip_path" clipPathUnits="userSpaceOnUse">
   <rect x="0" y="0" width="16000" height="8000"/>
  </clipPath>
  <clipPath id="presentation_clip_path_shrink" clipPathUnits="userSpaceOnUse">
   <rect x="16" y="8" width="15968" height="7984"/>
  </clipPath>
 </defs>
 <defs class="TextShapeIndex">
  <g ooo:slide="id1" ooo:id-list="id3 id4 id5 id6 id7 id8 id9 id10 id11 id12 id13 id14 id15 id16 id17 id18 id19 id20 id21"/>
 </defs>
 <defs class="EmbeddedBulletChars">
  <g id="bullet-char-template-57356" transform="scale(0.00048828125,-0.00048828125)">
   <path d="M 580,1141 L 1163,571 580,0 -4,571 580,1141 Z"/>
  </g>
  <g id="bullet-char-template-57354" transform="scale(0.00048828125,-0.00048828125)">
   <path d="M 8,1128 L 1137,1128 1137,0 8,0 8,1128 Z"/>
  </g>
  <g id="bullet-char-template-10146" transform="scale(0.00048828125,-0.00048828125)">
   <path d="M 174,0 L 602,739 174,1481 1456,739 174,0 Z M 1358,739 L 309,1346 659,739 1358,739 Z"/>
  </g>
  <g id="bullet-char-template-10132" transform="scale(0.00048828125,-0.00048828125)">
   <path d="M 2015,739 L 1276,0 717,0 1260,543 174,543 174,936 1260,936 717,1481 1274,1481 2015,739 Z"/>
  </g>
  <g id="bullet-char-template-10007" transform="scale(0.00048828125,-0.00048828125)">
   <path d="M 0,-2 C -7,14 -16,27 -25,37 L 356,567 C 262,823 215,952 215,954 215,979 228,992 255,992 264,992 276,990 289,987 310,991 331,999 354,1012 L 381,999 492,748 772,1049 836,1024 860,1049 C 881,1039 901,1025 922,1006 886,937 835,863 770,784 769,783 710,716 594,584 L 774,223 C 774,196 753,168 711,139 L 727,119 C 717,90 699,76 672,76 641,76 570,178 457,381 L 164,-76 C 142,-110 111,-127 72,-127 30,-127 9,-110 8,-76 1,-67 -2,-52 -2,-32 -2,-23 -1,-13 0,-2 Z"/>
  </g>
  <g id="bullet-char-template-10004" transform="scale(0.00048828125,-0.00048828125)">
   <path d="M 285,-33 C 182,-33 111,30 74,156 52,228 41,333 41,471 41,549 55,616 82,672 116,743 169,778 240,778 293,778 328,747 346,684 L 369,508 C 377,444 397,411 428,410 L 1163,1116 C 1174,1127 1196,1133 1229,1133 1271,1133 1292,1118 1292,1087 L 1292,965 C 1292,929 1282,901 1262,881 L 442,47 C 390,-6 338,-33 285,-33 Z"/>
  </g>
  <g id="bullet-char-template-9679" transform="scale(0.00048828125,-0.00048828125)">
   <path d="M 813,0 C 632,0 489,54 383,161 276,268 223,411 223,592 223,773 276,916 383,1023 489,1130 632,1184 813,1184 992,1184 1136,1130 1245,1023 1353,916 1407,772 1407,592 1407,412 1353,268 1245,161 1136,54 992,0 813,0 Z"/>
  </g>
  <g id="bullet-char-template-8226" transform="scale(0.00048828125,-0.00048828125)">
   <path d="M 346,457 C 273,457 209,483 155,535 101,586 74,649 74,723 74,796 101,859 155,911 209,963 273,989 346,989 419,989 480,963 531,910 582,859 608,796 608,723 608,648 583,586 532,535 482,483 420,457 346,457 Z"/>
  </g>
  <g id="bullet-char-template-8211" transform="scale(0.00048828125,-0.00048828125)">
   <path d="M -4,459 L 1135,459 1135,606 -4,606 -4,459 Z"/>
  </g>
  <g id="bullet-char-template-61548" transform="scale(0.00048828125,-0.00048828125)">
   <path d="M 173,740 C 173,903 231,1043 346,1159 462,1274 601,1332 765,1332 928,1332 1067,1274 1183,1159 1299,1043 1357,903 1357,740 1357,577 1299,437 1183,322 1067,206 928,148 765,148 601,148 462,206 346,322 231,437 173,577 173,740 Z"/>
  </g>
 </defs>
 <g>
  <g id="id2" class="Master_Slide">
   <g id="bg-id2" class="Background"/>
   <g id="bo-id2" class="BackgroundObjects"/>
  </g>
 </g>
 <g class="SlideGroup">
  <g>
   <g id="container-id1">
    <g id="id1" class="Slide" clip-path="url(#presentation_clip_path)">
     <g class="Page">
      <g class="Group">
       <g class="com.sun.star.drawing.LineShape">
        <g id="id3">
         <rect class="BoundingBox" stroke="none" fill="none" x="975" y="3952" width="14026" height="201"/>
         <path fill="none" stroke="rgb(102,102,102)" stroke-width="50" stroke-linejoin="round" d="M 1000,4052 L 14614,4052"/>
         <path fill="rgb(102,102,102)" stroke="none" d="M 14624,3952 L 14621,3952 14618,3952 14611,3954 14605,3959 14601,3966 14600,3974 14602,3979 14605,3984 14610,3989 14616,3991 14889,4052 14618,4113 14611,4115 14605,4120 14601,4127 14600,4135 14602,4142 14608,4148 14615,4152 14622,4152 14624,4152 14624,4151 14980,4073 14987,4071 14994,4067 14999,4060 15000,4052 14999,4045 14994,4038 14987,4033 14980,4032 14624,3952 Z"/>
        </g>
       </g>
       <g class="com.sun.star.drawing.LineShape">
        <g id="id4">
         <rect class="BoundingBox" stroke="none" fill="none" x="3900" y="1052" width="201" height="6026"/>
         <path fill="none" stroke="rgb(102,102,102)" stroke-width="50" stroke-linejoin="round" d="M 4000,7052 L 4000,1438"/>
         <path fill="rgb(102,102,102)" stroke="none" d="M 3900,1428 L 3900,1431 3900,1434 3902,1441 3907,1447 3914,1451 3922,1452 3927,1450 3932,1447 3937,1442 3939,1436 4000,1163 4061,1434 4063,1441 4068,1447 4075,1451 4083,1452 4090,1450 4096,1444 4100,1437 4100,1430 4100,1428 4099,1428 4021,1072 4019,1065 4015,1058 4008,1053 4000,1052 3993,1053 3986,1058 3981,1065 3980,1072 3900,1428 Z"/>
        </g>
       </g>
       <g class="Group">
        <g class="Graphic">
         <g id="id5">
          <rect class="BoundingBox" stroke="none" fill="none" x="14779" y="4262" width="222" height="191"/>
          <defs>
           <clipPath id="clip_path_1" clipPathUnits="userSpaceOnUse">
            <path d="M 14779,4262 L 15000,4262 15000,4452 14779,4452 14779,4262 Z"/>
           </clipPath>
          </defs>
          <g clip-path="url(#clip_path_1)">
           <path fill="rgb(0,0,0)" stroke="none" d="M 14919,4321 C 14922,4310 14931,4271 14961,4271 14963,4271 14973,4271 14982,4277 14970,4279 14961,4289 14961,4299 14961,4306 14966,4314 14977,4314 14987,4314 15000,4306 15000,4290 15000,4268 14975,4262 14961,4262 14937,4262 14922,4284 14917,4294 14906,4266 14884,4262 14872,4262 14828,4262 14804,4316 14804,4327 14804,4331 14808,4331 14809,4331 14813,4331 14814,4330 14815,4326 14829,4282 14857,4271 14871,4271 14879,4271 14893,4275 14893,4299 14893,4312 14886,4340 14871,4399 14864,4425 14849,4443 14831,4443 14828,4443 14819,4443 14810,4437 14821,4435 14830,4426 14830,4415 14830,4403 14821,4400 14814,4400 14802,4400 14791,4411 14791,4424 14791,4444 14812,4452 14831,4452 14858,4452 14873,4423 14875,4420 14880,4436 14895,4452 14920,4452 14963,4452 14987,4398 14987,4387 14987,4383 14983,4383 14982,4383 14978,4383 14977,4385 14977,4388 14963,4433 14934,4443 14921,4443 14904,4443 14898,4429 14898,4415 14898,4406 14900,4397 14905,4378 L 14919,4321 14919,4321 Z"/>
          </g>
         </g>
        </g>
       </g>
       <g class="Group">
        <g class="Graphic">
         <g id="id6">
          <rect class="BoundingBox" stroke="none" fill="none" x="4200" y="948" width="239" height="305"/>
          <path fill="rgb(0,0,0)" stroke="none" d="M 4420,990 C 4422,984 4422,983 4422,980 4422,972 4416,968 4410,968 4406,968 4399,971 4395,977 4394,979 4391,992 4389,1000 4386,1011 4383,1022 4381,1034 L 4362,1109 C 4360,1116 4342,1145 4314,1145 4293,1145 4288,1127 4288,1111 4288,1092 4295,1066 4310,1029 4316,1011 4318,1007 4318,998 4318,979 4305,964 4284,964 4244,964 4228,1025 4228,1029 4228,1033 4232,1033 4233,1033 4237,1033 4238,1032 4240,1025 4251,986 4268,973 4282,973 4286,973 4293,973 4293,987 4293,997 4289,1008 4286,1016 4269,1061 4261,1085 4261,1104 4261,1142 4288,1155 4313,1155 4329,1155 4343,1147 4355,1136 4350,1157 4345,1178 4328,1200 4317,1215 4301,1227 4282,1227 4276,1227 4257,1226 4250,1209 4256,1209 4262,1209 4268,1204 4272,1200 4276,1195 4276,1187 4276,1174 4265,1172 4260,1172 4251,1172 4237,1179 4237,1200 4237,1221 4255,1236 4282,1236 4325,1236 4368,1198 4380,1150 L 4420,990 4420,990 Z"/>
         </g>
        </g>
       </g>
       <g class="com.sun.star.drawing.LineShape">
        <g id="id7">
         <rect class="BoundingBox" stroke="none" fill="none" x="3950" y="3002" width="101" height="2101"/>
         <path fill="none" stroke="rgb(0,0,0)" stroke-width="100" stroke-linejoin="round" d="M 4000,3052 L 4000,5052"/>
        </g>
       </g>
       <g class="com.sun.star.drawing.LineShape">
        <g id="id8">
         <rect class="BoundingBox" stroke="none" fill="none" x="11950" y="3002" width="101" height="2101"/>
         <path fill="none" stroke="rgb(0,0,0)" stroke-width="100" stroke-linejoin="round" d="M 12000,3052 L 12000,5052"/>
        </g>
       </g>
       <g class="com.sun.star.drawing.LineShape">
        <g id="id9">
         <rect class="BoundingBox" stroke="none" fill="none" x="3950" y="4002" width="8101" height="101"/>
         <path fill="none" stroke="rgb(0,0,0)" stroke-width="100" stroke-linejoin="round" d="M 4000,4052 L 12000,4052"/>
        </g>
       </g>
       <g class="com.sun.star.drawing.LineShape">
        <g id="id10">
         <rect class="BoundingBox" stroke="none" fill="none" x="11950" y="3002" width="601" height="601"/>
         <path fill="none" stroke="rgb(0,0,0)" stroke-width="100" stroke-linejoin="round" d="M 12000,3052 L 12500,3552"/>
        </g>
       </g>
       <g class="com.sun.star.drawing.LineShape">
        <g id="id11">
         <rect class="BoundingBox" stroke="none" fill="none" x="11950" y="3502" width="601" height="601"/>
         <path fill="none" stroke="rgb(0,0,0)" stroke-width="100" stroke-linejoin="round" d="M 12000,3552 L 12500,4052"/>
        </g>
       </g>
       <g class="com.sun.star.drawing.LineShape">
        <g id="id12">
         <rect class="BoundingBox" stroke="none" fill="none" x="11950" y="4002" width="601" height="601"/>
         <path fill="none" stroke="rgb(0,0,0)" stroke-width="100" stroke-linejoin="round" d="M 12000,4052 L 12500,4552"/>
        </g>
       </g>
       <g class="com.sun.star.drawing.LineShape">
        <g id="id13">
         <rect class="BoundingBox" stroke="none" fill="none" x="11950" y="4502" width="601" height="601"/>
         <path fill="none" stroke="rgb(0,0,0)" stroke-width="100" stroke-linejoin="round" d="M 12000,4552 L 12500,5052"/>
        </g>
       </g>
       <g class="com.sun.star.drawing.LineShape">
        <g id="id14">
         <rect class="BoundingBox" stroke="none" fill="none" x="11950" y="5002" width="601" height="601"/>
         <path fill="none" stroke="rgb(0,0,0)" stroke-width="100" stroke-linejoin="round" d="M 12000,5052 L 12500,5552"/>
        </g>
       </g>
       <g class="com.sun.star.drawing.LineShape">
        <g id="id15">
         <rect class="BoundingBox" stroke="none" fill="none" x="3450" y="5002" width="601" height="601"/>
         <path fill="none" stroke="rgb(0,0,0)" stroke-width="100" stroke-linejoin="round" d="M 3500,5552 L 4000,5052"/>
        </g>
       </g>
       <g class="com.sun.star.drawing.LineShape">
        <g id="id16">
         <rect class="BoundingBox" stroke="none" fill="none" x="3450" y="4502" width="601" height="601"/>
         <path fill="none" stroke="rgb(0,0,0)" stroke-width="100" stroke-linejoin="round" d="M 3500,5052 L 4000,4552"/>
        </g>
       </g>
       <g class="com.sun.star.drawing.LineShape">
        <g id="id17">
         <rect class="BoundingBox" stroke="none" fill="none" x="3450" y="4002" width="601" height="601"/>
         <path fill="none" stroke="rgb(0,0,0)" stroke-width="100" stroke-linejoin="round" d="M 3500,4552 L 4000,4052"/>
        </g>
       </g>
       <g class="com.sun.star.drawing.LineShape">
        <g id="id18">
         <rect class="BoundingBox" stroke="none" fill="none" x="3450" y="3502" width="601" height="601"/>
         <path fill="none" stroke="rgb(0,0,0)" stroke-width="100" stroke-linejoin="round" d="M 3500,4052 L 4000,3552"/>
        </g>
       </g>
       <g class="com.sun.star.drawing.LineShape">
        <g id="id19">
         <rect class="BoundingBox" stroke="none" fill="none" x="3450" y="3002" width="601" height="601"/>
         <path fill="none" stroke="rgb(0,0,0)" stroke-width="100" stroke-linejoin="round" d="M 3500,3552 L 4000,3052"/>
        </g>
       </g>
       <g class="Group">
        <g class="Graphic">
         <g id="id20">
          <rect class="BoundingBox" stroke="none" fill="none" x="4126" y="4205" width="194" height="290"/>
          <defs>
           <clipPath id="clip_path_2" clipPathUnits="userSpaceOnUse">
            <path d="M 4126,4205 L 4319,4205 4319,4494 4126,4494 4126,4205 Z"/>
           </clipPath>
          </defs>
          <g clip-path="url(#clip_path_2)">
           <path fill="rgb(0,0,0)" stroke="none" d="M 4319,4350 C 4319,4317 4317,4283 4302,4252 4283,4212 4249,4205 4231,4205 4206,4205 4175,4216 4158,4255 4144,4284 4142,4317 4142,4350 4142,4382 4144,4420 4161,4452 4179,4486 4210,4494 4230,4494 4253,4494 4285,4485 4303,4445 4317,4416 4319,4384 4319,4350 L 4319,4350 Z M 4230,4485 C 4214,4485 4189,4474 4182,4434 4177,4409 4177,4370 4177,4345 4177,4318 4177,4291 4181,4268 4189,4218 4220,4214 4230,4214 4244,4214 4272,4222 4280,4263 4284,4287 4284,4319 4284,4345 4284,4377 4284,4405 4280,4432 4273,4472 4249,4485 4230,4485 L 4230,4485 Z"/>
          </g>
         </g>
        </g>
       </g>
       <g class="Group">
        <g class="Graphic">
         <g id="id21">
          <rect class="BoundingBox" stroke="none" fill="none" x="11600" y="4165" width="271" height="288"/>
          <defs>
           <clipPath id="clip_path_3" clipPathUnits="userSpaceOnUse">
            <path d="M 11600,4165 L 11870,4165 11870,4452 11600,4452 11600,4165 Z"/>
           </clipPath>
          </defs>
          <g clip-path="url(#clip_path_3)">
           <path fill="rgb(0,0,0)" stroke="none" d="M 11757,4198 C 11761,4183 11762,4178 11802,4178 11814,4178 11818,4178 11818,4170 11818,4165 11813,4165 11811,4165 11797,4165 11763,4166 11749,4166 11736,4166 11705,4165 11693,4165 11690,4165 11685,4165 11685,4173 11685,4178 11689,4178 11697,4178 11697,4178 11705,4178 11713,4179 11720,4180 11724,4180 11724,4186 11724,4187 11723,4189 11722,4194 L 11666,4419 C 11662,4436 11661,4439 11628,4439 11621,4439 11616,4439 11616,4447 11616,4452 11620,4452 11628,4452 L 11822,4452 C 11832,4452 11833,4452 11835,4445 L 11868,4354 C 11870,4349 11870,4349 11870,4348 11870,4347 11869,4344 11865,4344 11861,4344 11861,4346 11858,4352 11844,4391 11825,4439 11752,4439 L 11713,4439 C 11707,4439 11706,4439 11704,4439 11700,4438 11698,4438 11698,4434 11698,4433 11698,4432 11700,4425 L 11757,4198 11757,4198 Z"/>
          </g>
         </g>
        </g>
       </g>
      </g>
     </g>
    </g>
   </g>
  </g>
 </g>
</svg>