<?xml version="1.0" encoding="UTF-8"?>
<!DOCTYPE svg PUBLIC "-//W3C//DTD SVG 1.1//EN" "http://www.w3.org/Graphics/SVG/1.1/DTD/svg11.dtd">
<svg version="1.2" width="150mm" height="70mm" viewBox="0 0 15000 7000" preserveAspectRatio="xMidYMid" fill-rule="evenodd" stroke-width="28.222" stroke-linejoin="round" xmlns="http://www.w3.org/2000/svg" xmlns:ooo="http://xml.openoffice.org/svg/export" xmlns:xlink="http://www.w3.org/1999/xlink" xmlns:presentation="http://sun.com/xmlns/staroffice/presentation" xmlns:smil="http://www.w3.org/2001/SMIL20/" xmlns:anim="urn:oasis:names:tc:opendocument:xmlns:animation:1.0" xml:space="preserve">
 <defs class="ClipPathGroup">
  <clipPath id="presentation_clip_path" clipPathUnits="userSpaceOnUse">
   <rect x="0" y="0" width="15000" height="7000"/>
  </clipPath>
  <clipPath id="presentation_clip_path_shrink" clipPathUnits="userSpaceOnUse">
   <rect x="15" y="7" width="14970" height="6986"/>
  </clipPath>
 </defs>
 <defs class="TextShapeIndex">
  <g ooo:slide="id1" ooo:id-list="id3 id4 id5 id6 id7 id8 id9 id10 id11 id12 id13 id14 id15 id16 id17"/>
 </defs>
 <defs class="EmbeddedBulletChars">
  <g id="bullet-char-template-57356" transform="scale(0.00048828125,-0.00048828125)">
   <path d="M 580,1141 L 1163,571 580,0 -4,571 580,1141 Z"/>
  </g>
  <g id="bullet-char-template-57354" transform="scale(0.00048828125,-0.00048828125)">
   <path d="M 8,1128 L 1137,1128 1137,0 8,0 8,1128 Z"/>
  </g>
  <g id="bullet-char-template-10146" transform="scale(0.00048828125,-0.00048828125)">
   <path d="M 174,0 L 602,739 174,1481 1456,739 174,0 Z M 1358,739 L 309,1346 659,739 1358,739 Z"/>
  </g>
  <g id="bullet-char-template-10132" transform="scale(0.00048828125,-0.00048828125)">
   <path d="M 2015,739 L 1276,0 717,0 1260,543 174,543 174,936 1260,936 717,1481 1274,1481 2015,739 Z"/>
  </g>
  <g id="bullet-char-template-10007" transform="scale(0.00048828125,-0.00048828125)">
   <path d="M 0,-2 C -7,14 -16,27 -25,37 L 356,567 C 262,823 215,952 215,954 215,979 228,992 255,992 264,992 276,990 289,987 310,991 331,999 354,1012 L 381,999 492,748 772,1049 836,1024 860,1049 C 881,1039 901,1025 922,1006 886,937 835,863 770,784 769,783 710,716 594,584 L 774,223 C 774,196 753,168 711,139 L 727,119 C 717,90 699,76 672,76 641,76 570,178 457,381 L 164,-76 C 142,-110 111,-127 72,-127 30,-127 9,-110 8,-76 1,-67 -2,-52 -2,-32 -2,-23 -1,-13 0,-2 Z"/>
  </g>
  <g id="bullet-char-template-10004" transform="scale(0.00048828125,-0.00048828125)">
   <path d="M 285,-33 C 182,-33 111,30 74,156 52,228 41,333 41,471 41,549 55,616 82,672 116,743 169,778 240,778 293,778 328,747 346,684 L 369,508 C 377,444 397,411 428,410 L 1163,1116 C 1174,1127 1196,1133 1229,1133 1271,1133 1292,1118 1292,1087 L 1292,965 C 1292,929 1282,901 1262,881 L 442,47 C 390,-6 338,-33 285,-33 Z"/>
  </g>
  <g id="bullet-char-template-9679" transform="scale(0.00048828125,-0.00048828125)">
   <path d="M 813,0 C 632,0 489,54 383,161 276,268 223,411 223,592 223,773 276,916 383,1023 489,1130 632,1184 813,1184 992,1184 1136,1130 1245,1023 1353,916 1407,772 1407,592 1407,412 1353,268 1245,161 1136,54 992,0 813,0 Z"/>
  </g>
  <g id="bullet-char-template-8226" transform="scale(0.00048828125,-0.00048828125)">
   <path d="M 346,457 C 273,457 209,483 155,535 101,586 74,649 74,723 74,796 101,859 155,911 209,963 273,989 346,989 419,989 480,963 531,910 582,859 608,796 608,723 608,648 583,586 532,535 482,483 420,457 346,457 Z"/>
  </g>
  <g id="bullet-char-template-8211" transform="scale(0.00048828125,-0.00048828125)">
   <path d="M -4,459 L 1135,459 1135,606 -4,606 -4,459 Z"/>
  </g>
  <g id="bullet-char-template-61548" transform="scale(0.00048828125,-0.00048828125)">
   <path d="M 173,740 C 173,903 231,1043 346,1159 462,1274 601,1332 765,1332 928,1332 1067,1274 1183,1159 1299,1043 1357,903 1357,740 1357,577 1299,437 1183,322 1067,206 928,148 765,148 601,148 462,206 346,322 231,437 173,577 173,740 Z"/>
  </g>
 </defs>
 <g>
  <g id="id2" class="Master_Slide">
   <g id="bg-id2" class="Background"/>
   <g id="bo-id2" class="BackgroundObjects"/>
  </g>
 </g>
 <g class="SlideGroup">
  <g>
   <g id="container-id1">
    <g id="id1" class="Slide" clip-path="url(#presentation_clip_path)">
     <g class="Page">
      <g class="Group">
       <g class="com.sun.star.drawing.LineShape">
        <g id="id3">
         <rect class="BoundingBox" stroke="none" fill="none" x="475" y="3452" width="14026" height="201"/>
         <path fill="none" stroke="rgb(102,102,102)" stroke-width="50" stroke-linejoin="round" d="M 500,3552 L 14114,3552"/>
         <path fill="rgb(102,102,102)" stroke="none" d="M 14124,3452 L 14121,3452 14118,3452 14111,3454 14105,3459 14101,3466 14100,3474 14102,3479 14105,3484 14110,3489 14116,3491 14389,3552 14118,3613 14111,3615 14105,3620 14101,3627 14100,3635 14102,3642 14108,3648 14115,3652 14122,3652 14124,3652 14124,3651 14480,3573 14487,3571 14494,3567 14499,3560 14500,3552 14499,3545 14494,3538 14487,3533 14480,3532 14124,3452 Z"/>
        </g>
       </g>
       <g class="com.sun.star.drawing.LineShape">
        <g id="id4">
         <rect class="BoundingBox" stroke="none" fill="none" x="3400" y="552" width="201" height="6026"/>
         <path fill="none" stroke="rgb(102,102,102)" stroke-width="50" stroke-linejoin="round" d="M 3500,6552 L 3500,938"/>
         <path fill="rgb(102,102,102)" stroke="none" d="M 3400,928 L 3400,931 3400,934 3402,941 3407,947 3414,951 3422,952 3427,950 3432,947 3437,942 3439,936 3500,663 3561,934 3563,941 3568,947 3575,951 3583,952 3590,950 3596,944 3600,937 3600,930 3600,928 3599,928 3521,572 3519,565 3515,558 3508,553 3500,552 3493,553 3486,558 3481,565 3480,572 3400,928 Z"/>
        </g>
       </g>
       <g class="Group">
        <g class="Graphic">
         <g id="id5">
          <rect class="BoundingBox" stroke="none" fill="none" x="14279" y="3762" width="222" height="191"/>
          <defs>
           <clipPath id="clip_path_1" clipPathUnits="userSpaceOnUse">
            <path d="M 14279,3762 L 14500,3762 14500,3952 14279,3952 14279,3762 Z"/>
           </clipPath>
          </defs>
          <g clip-path="url(#clip_path_1)">
           <path fill="rgb(0,0,0)" stroke="none" d="M 14419,3821 C 14422,3810 14431,3771 14461,3771 14463,3771 14473,3771 14482,3777 14470,3779 14461,3789 14461,3799 14461,3806 14466,3814 14477,3814 14487,3814 14500,3806 14500,3790 14500,3768 14475,3762 14461,3762 14437,3762 14422,3784 14417,3794 14406,3766 14384,3762 14372,3762 14328,3762 14304,3816 14304,3827 14304,3831 14308,3831 14309,3831 14313,3831 14314,3830 14315,3826 14329,3782 14357,3771 14371,3771 14379,3771 14393,3775 14393,3799 14393,3812 14386,3840 14371,3899 14364,3925 14349,3943 14331,3943 14328,3943 14319,3943 14310,3937 14321,3935 14330,3926 14330,3915 14330,3903 14321,3900 14314,3900 14302,3900 14291,3911 14291,3924 14291,3944 14312,3952 14331,3952 14358,3952 14373,3923 14375,3920 14380,3936 14395,3952 14420,3952 14463,3952 14487,3898 14487,3887 14487,3883 14483,3883 14482,3883 14478,3883 14477,3885 14477,3888 14463,3933 14434,3943 14421,3943 14404,3943 14398,3929 14398,3915 14398,3906 14400,3897 14405,3878 L 14419,3821 14419,3821 Z"/>
          </g>
         </g>
        </g>
       </g>
       <g class="Group">
        <g class="Graphic">
         <g id="id6">
          <rect class="BoundingBox" stroke="none" fill="none" x="3700" y="448" width="239" height="305"/>
          <path fill="rgb(0,0,0)" stroke="none" d="M 3920,490 C 3922,484 3922,483 3922,480 3922,472 3916,468 3910,468 3906,468 3899,471 3895,477 3894,479 3891,492 3889,500 3886,511 3883,522 3881,534 L 3862,609 C 3860,616 3842,645 3814,645 3793,645 3788,627 3788,611 3788,592 3795,566 3810,529 3816,511 3818,507 3818,498 3818,479 3805,464 3784,464 3744,464 3728,525 3728,529 3728,533 3732,533 3733,533 3737,533 3738,532 3740,525 3751,486 3768,473 3782,473 3786,473 3793,473 3793,487 3793,497 3789,508 3786,516 3769,561 3761,585 3761,604 3761,642 3788,655 3813,655 3829,655 3843,647 3855,636 3850,657 3845,678 3828,700 3817,715 3801,727 3782,727 3776,727 3757,726 3750,709 3756,709 3762,709 3768,704 3772,700 3776,695 3776,687 3776,674 3765,672 3760,672 3751,672 3737,679 3737,700 3737,721 3755,736 3782,736 3825,736 3868,698 3880,650 L 3920,490 3920,490 Z"/>
         </g>
        </g>
       </g>
       <g class="com.sun.star.drawing.LineShape">
        <g id="id7">
         <rect class="BoundingBox" stroke="none" fill="none" x="3450" y="3502" width="8101" height="101"/>
         <path fill="none" stroke="rgb(0,0,0)" stroke-width="100" stroke-linejoin="round" d="M 3500,3552 L 11500,3552"/>
        </g>
       </g>
       <g class="Group">
        <g class="Graphic">
         <g id="id8">
          <rect class="BoundingBox" stroke="none" fill="none" x="3626" y="3105" width="194" height="290"/>
          <defs>
           <clipPath id="clip_path_2" clipPathUnits="userSpaceOnUse">
            <path d="M 3626,3105 L 3819,3105 3819,3394 3626,3394 3626,3105 Z"/>
           </clipPath>
          </defs>
          <g clip-path="url(#clip_path_2)">
           <path fill="rgb(0,0,0)" stroke="none" d="M 3819,3250 C 3819,3217 3817,3183 3802,3152 3783,3112 3749,3105 3731,3105 3706,3105 3675,3116 3658,3155 3644,3184 3642,3217 3642,3250 3642,3282 3644,3320 3661,3352 3679,3386 3710,3394 3730,3394 3753,3394 3785,3385 3803,3345 3817,3316 3819,3284 3819,3250 L 3819,3250 Z M 3730,3385 C 3714,3385 3689,3374 3682,3334 3677,3309 3677,3270 3677,3245 3677,3218 3677,3191 3681,3168 3689,3118 3720,3114 3730,3114 3744,3114 3772,3122 3780,3163 3784,3187 3784,3219 3784,3245 3784,3277 3784,3305 3780,3332 3773,3372 3749,3385 3730,3385 L 3730,3385 Z"/>
          </g>
         </g>
        </g>
       </g>
       <g class="Group">
        <g class="Graphic">
         <g id="id9">
          <rect class="BoundingBox" stroke="none" fill="none" x="11363" y="3143" width="271" height="288"/>
          <defs>
           <clipPath id="clip_path_3" clipPathUnits="userSpaceOnUse">
            <path d="M 11363,3143 L 11633,3143 11633,3430 11363,3430 11363,3143 Z"/>
           </clipPath>
          </defs>
          <g clip-path="url(#clip_path_3)">
           <path fill="rgb(0,0,0)" stroke="none" d="M 11520,3176 C 11524,3161 11525,3156 11565,3156 11577,3156 11581,3156 11581,3148 11581,3143 11576,3143 11574,3143 11560,3143 11526,3144 11512,3144 11499,3144 11468,3143 11456,3143 11453,3143 11448,3143 11448,3151 11448,3156 11452,3156 11460,3156 11460,3156 11468,3156 11476,3157 11483,3158 11487,3158 11487,3164 11487,3165 11486,3167 11485,3172 L 11429,3397 C 11425,3414 11424,3417 11391,3417 11384,3417 11379,3417 11379,3425 11379,3430 11383,3430 11391,3430 L 11585,3430 C 11595,3430 11596,3430 11598,3423 L 11631,3332 C 11633,3327 11633,3327 11633,3326 11633,3325 11632,3322 11628,3322 11624,3322 11624,3324 11621,3330 11607,3369 11588,3417 11515,3417 L 11476,3417 C 11470,3417 11469,3417 11467,3417 11463,3416 11461,3416 11461,3412 11461,3411 11461,3410 11463,3403 L 11520,3176 11520,3176 Z"/>
          </g>
         </g>
        </g>
       </g>
       <g class="Group">
        <g class="com.sun.star.drawing.PolyPolygonShape">
         <g id="id10">
          <rect class="BoundingBox" stroke="none" fill="none" x="11174" y="3527" width="652" height="751"/>
          <path fill="none" stroke="rgb(0,0,0)" stroke-width="50" stroke-linejoin="round" d="M 11500,3552 L 11200,4252 11800,4252 11500,3552 Z"/>
         </g>
        </g>
        <g class="com.sun.star.drawing.CustomShape">
         <g id="id11">
          <rect class="BoundingBox" stroke="none" fill="none" x="11174" y="4275" width="253" height="252"/>
          <path fill="none" stroke="rgb(0,0,0)" stroke-width="50" stroke-linejoin="round" d="M 11401,4401 C 11401,4418 11396,4435 11388,4451 11379,4466 11366,4479 11351,4488 11335,4496 11318,4501 11301,4501 11283,4501 11266,4496 11250,4488 11235,4479 11222,4466 11213,4451 11205,4435 11200,4418 11200,4401 11200,4383 11205,4366 11213,4350 11222,4335 11235,4322 11250,4313 11266,4305 11283,4300 11301,4300 11318,4300 11335,4305 11351,4313 11366,4322 11379,4335 11388,4350 11396,4366 11401,4383 11401,4401 Z"/>
         </g>
        </g>
        <g class="com.sun.star.drawing.CustomShape">
         <g id="id12">
          <rect class="BoundingBox" stroke="none" fill="none" x="11576" y="4275" width="252" height="252"/>
          <path fill="none" stroke="rgb(0,0,0)" stroke-width="50" stroke-linejoin="round" d="M 11802,4401 C 11802,4418 11797,4435 11789,4451 11780,4466 11767,4479 11752,4488 11736,4496 11719,4501 11702,4501 11684,4501 11667,4496 11651,4488 11636,4479 11623,4466 11614,4451 11606,4435 11601,4418 11601,4401 11601,4383 11606,4366 11614,4350 11623,4335 11636,4322 11651,4313 11667,4305 11684,4300 11702,4300 11719,4300 11736,4305 11752,4313 11767,4322 11780,4335 11789,4350 11797,4366 11802,4383 11802,4401 Z"/>
         </g>
        </g>
       </g>
       <g class="Group">
        <g class="com.sun.star.drawing.PolyPolygonShape">
         <g id="id13">
          <rect class="BoundingBox" stroke="none" fill="none" x="3175" y="3528" width="652" height="751"/>
          <path fill="none" stroke="rgb(0,0,0)" stroke-width="50" stroke-linejoin="round" d="M 3501,3553 L 3201,4253 3801,4253 3501,3553 Z"/>
         </g>
        </g>
        <g class="com.sun.star.drawing.CustomShape">
         <g id="id14">
          <rect class="BoundingBox" stroke="none" fill="none" x="3176" y="4276" width="252" height="252"/>
          <path fill="none" stroke="rgb(0,0,0)" stroke-width="50" stroke-linejoin="round" d="M 3402,4402 C 3402,4419 3397,4436 3389,4452 3380,4467 3367,4480 3352,4489 3336,4497 3319,4502 3301,4502 3284,4502 3267,4497 3251,4489 3236,4480 3223,4467 3214,4452 3206,4436 3201,4419 3201,4402 3201,4384 3206,4367 3214,4351 3223,4336 3236,4323 3251,4314 3267,4306 3284,4301 3301,4301 3319,4301 3336,4306 3352,4314 3367,4323 3380,4336 3389,4351 3397,4367 3402,4384 3402,4402 Z"/>
         </g>
        </g>
        <g class="com.sun.star.drawing.CustomShape">
         <g id="id15">
          <rect class="BoundingBox" stroke="none" fill="none" x="3577" y="4276" width="252" height="252"/>
          <path fill="none" stroke="rgb(0,0,0)" stroke-width="50" stroke-linejoin="round" d="M 3803,4402 C 3803,4419 3798,4436 3790,4452 3781,4467 3768,4480 3753,4489 3737,4497 3720,4502 3703,4502 3685,4502 3668,4497 3652,4489 3637,4480 3624,4467 3615,4452 3607,4436 3602,4419 3602,4402 3602,4384 3607,4367 3615,4351 3624,4336 3637,4323 3652,4314 3668,4306 3685,4301 3703,4301 3720,4301 3737,4306 3753,4314 3768,4323 3781,4336 3790,4351 3798,4367 3803,4384 3803,4402 Z"/>
         </g>
        </g>
       </g>
       <g class="com.sun.star.drawing.LineShape">
        <g id="id16">
         <rect class="BoundingBox" stroke="none" fill="none" x="9075" y="875" width="251" height="1026"/>
         <path fill="none" stroke="rgb(0,0,0)" stroke-width="50" stroke-linejoin="round" d="M 9200,900 L 9200,1638"/>
         <path fill="rgb(0,0,0)" stroke="none" d="M 9076,1641 L 9187,1890 9192,1897 9199,1900 9208,1897 9213,1891 9324,1641 9325,1638 9325,1636 9324,1631 9321,1625 9317,1622 9311,1621 9089,1621 9083,1622 9078,1625 9076,1631 9075,1636 9075,1638 9076,1641 Z"/>
        </g>
       </g>
       <g class="Group">
        <g class="Graphic">
         <g id="id17">
          <rect class="BoundingBox" stroke="none" fill="none" x="9401" y="1168" width="248" height="367"/>
          <path fill="rgb(0,0,0)" stroke="none" d="M 9615,1211 C 9615,1209 9616,1206 9616,1204 9616,1196 9611,1192 9604,1192 9599,1192 9588,1195 9586,1210 9579,1195 9564,1184 9547,1184 9500,1184 9447,1243 9447,1303 9447,1345 9473,1369 9503,1369 9528,1369 9548,1350 9552,1345 L 9552,1345 C 9544,1383 9539,1400 9539,1401 9537,1405 9523,1446 9478,1446 9470,1446 9456,1446 9445,1442 9457,1438 9462,1427 9462,1420 9462,1413 9457,1405 9446,1405 9437,1405 9423,1413 9423,1430 9423,1447 9439,1455 9479,1455 9531,1455 9562,1423 9568,1398 L 9615,1211 9615,1211 Z M 9560,1316 C 9558,1327 9548,1337 9539,1345 9530,1353 9517,1360 9505,1360 9484,1360 9477,1338 9477,1322 9477,1301 9489,1252 9501,1230 9512,1210 9530,1193 9548,1193 9576,1193 9581,1227 9581,1229 9581,1231 9581,1234 9580,1235 L 9560,1316 9560,1316 Z"/>
          <path fill="rgb(0,0,0)" stroke="none" d="M 9525,1518 L 9417,1518 9417,1501 9632,1501 9632,1518 9525,1518 Z"/>
         </g>
        </g>
       </g>
      </g>
     </g>
    </g>
   </g>
  </g>
 </g>
</svg>